…
## Анализ. Точки доступа.

### 1. Определить небезопасные точки доступа (без шифрования – OPN)

``` r
unsafe_points <- ds1 %>% 
  filter(Privacy == 'OPN') %>% 
  distinct(BSSID)
unsafe_points
```

    # A tibble: 42 × 1
       BSSID            
       <chr>            
     1 E8:28:C1:DC:B2:52
     2 E8:28:C1:DC:B2:50
     3 E8:28:C1:DC:B2:51
     4 E8:28:C1:DC:FF:F2
     5 00:25:00:FF:94:73
     6 E8:28:C1:DD:04:52
     7 E8:28:C1:DE:74:31
     8 E8:28:C1:DE:74:32
     9 E8:28:C1:DC:C8:32
    10 E8:28:C1:DD:04:50
    # ℹ 32 more rows
…
### 3. Кластеризация запросов и определение времени появления устройств

``` r
ds2 %>% 
  group_by(Probed.ESSIDs) %>% 
  summarise(
    first_seen = min(First.time.seen),
    last_seen = max(Last.time.seen)
  ) %>% 
  arrange(first_seen)
```

    # A tibble: 38 × 3
       Probed.ESSIDs                 first_seen          last_seen          
       <chr>                         <dttm>              <dttm>             
     1 C322U13 3965                  2023-07-28 09:13:03 2023-07-28 11:53:16
     2 C322U21 0566                  2023-07-28 09:13:03 2023-07-28 11:51:54
     3 C322U06 5179,Galaxy A71       2023-07-28 09:13:06 2023-07-28 11:50:50
     4 GIVC                          2023-07-28 09:13:06 2023-07-28 11:55:54
     5 <NA>                          2023-07-28 09:13:06 2023-07-28 11:56:21
     6 KOTIKI_XXX                    2023-07-28 09:13:08 2023-07-28 11:53:36
     7 AndroidAP177B                 2023-07-28 09:13:09 2023-07-28 11:34:42
     8 Galaxy A71                    2023-07-28 09:13:13 2023-07-28 11:50:22
     9 KC                            2023-07-28 09:13:14 2023-07-28 11:51:50
    10 MIREA_HOTSPOT,Galaxy A30s5208 2023-07-28 09:13:17 2023-07-28 11:56:16
    # ℹ 28 more rows
…
