…
    # A tibble: 1 × 2
      name        height
      <chr>        <int>
    1 Yarael Poof    264

### 8. Найти всех персонажей ниже 170

Персонажи ниже 170:

``` r
starwars %>% filter(height < 170) %>% select(name, height)
```

    # A tibble: 22 × 2
       name                  height
       <chr>                  <int>
     1 C-3PO                    167
     2 R2-D2                     96
     3 Leia Organa              150
     4 Beru Whitesun Lars       165
     5 R5-D4                     97
     6 Yoda                      66
     7 Mon Mothma               150
     8 Wicket Systri Warrick     88
     9 Nien Nunb                160
    10 Watto                    137
    # ℹ 12 more rows

### 9. Подсчитать ИМТ (индекс массы тела) для всех персонажей

ИМТ был рассчитан по формуле:

``` r
print(starwars %>% mutate(imt = mass / (height)^2) %>% select(name, imt))
```

    # A tibble: 87 × 2
       name                   imt
       <chr>                <dbl>
     1 Luke Skywalker     0.00260
     2 C-3PO              0.00269
     3 R2-D2              0.00347
     4 Darth Vader        0.00333
     5 Leia Organa        0.00218
     6 Owen Lars          0.00379
     7 Beru Whitesun Lars 0.00275
     8 R5-D4              0.00340
     9 Biggs Darklighter  0.00251
    10 Obi-Wan Kenobi     0.00232
    # ℹ 77 more rows
…
    # A tibble: 1 × 2
      eye_color   sum
      <chr>     <int>
    1 brown        21

### 13. Подсчитать среднюю длину имени в каждой расе

Средняя длина имени:

``` r
starwars %>% filter(!is.na(species)) %>% mutate(nlen = nchar(name)) %>% group_by(species) %>% summarise(mean(nlen))
```

    # A tibble: 37 × 2
       species   `mean(nlen)`
       <chr>            <dbl>
     1 Aleena           12   
     2 Besalisk         15   
     3 Cerean           12   
     4 Chagrian         10   
     5 Clawdite         10   
     6 Droid             4.83
     7 Dug               7   
     8 Ewok             21   
     9 Geonosian        17   
    10 Gungan           11.7 
    # ℹ 27 more rows
…
